{
    "_comment": "List of blocked words",
    "words": ["nigger", "faggot", "trap", "tranny"],
    "nsfw": {
        "_comment": "Channel IDs where NSFW is blocked",
        "blocked_channels": [
            "771293718531407883"
        ],
        "_comment_": "List of NSFW sites to block in channels",
        "sites": [
            "pornhub.com",
            "pornmd.com",
            "xvideos.com",
            "xhamster.com",
            "youporn.com",
            "tube8.com",
            "thumbzilla.com",
            "rule34.xxx",
            "nhentai.net",
            "xnxx.com",
            "xtube.com",
            "gaytube.com",
            "hanime.tv",
            "gay.tube",
            "xxx.com",
            "porn.com",
            "sex.com"
        ]
    }
}